{"componentChunkName":"component---src-containers-home-tsx","path":"/4","result":{"data":{"allMarkdownRemark":{"edges":[{"node":{"frontmatter":{"slug":"/coding-the-matrix-basis-1","category":["선형대수학"],"date":"2018년 12월 17일","tags":["코딩 더 매트릭스","python"],"title":"코딩 더 매트릭스 - 6장 기저 (1)","description":"좌표 표현, 일차종속, 일차독립, 기저, 기저변경"}}},{"node":{"frontmatter":{"slug":"/coding-the-matrix-matrix-3","category":["선형대수학"],"date":"2018년 12월 10일","tags":["코딩 더 매트릭스","python"],"title":"코딩 더 매트릭스 - 5장 행렬 (3)","description":"선형변환을 이용한 이미지 변환"}}},{"node":{"frontmatter":{"slug":"/coding-the-matrix-matrix-2","category":["선형대수학"],"date":"2018년 12월 10일","tags":["코딩 더 매트릭스","python"],"title":"코딩 더 매트릭스 - 5장 행렬 (2)","description":"행렬 곱셈, 인접 행렬, 역합수와 역행렬"}}},{"node":{"frontmatter":{"slug":"/coding-the-matrix-matrix-1","category":["선형대수학"],"date":"2018년 12월 01일","tags":["코딩 더 매트릭스","python","행렬"],"title":"코딩 더 매트릭스 - 5장 행렬 (1)","description":"행렬과 행렬 연산"}}},{"node":{"frontmatter":{"slug":"/coding-the-matrix-vectorspace-2","category":["선형대수학"],"date":"2018년 11월 27일","tags":["코딩 더 매트릭스","python"],"title":"코딩 더 매트릭스 - 4장 벡터공간 (2)","description":"아핀 공간, 동차 선형시스템"}}},{"node":{"frontmatter":{"slug":"/coding-the-matrix-vectorspace-1","category":["선형대수학"],"date":"2018년 11월 25일","tags":["코딩 더 매트릭스","python"],"title":"코딩 더 매트릭스 - 4장 벡터공간 (1)","description":"선형결합, Span, 벡터공간"}}},{"node":{"frontmatter":{"slug":"/coding-the-matrix-vector-3","category":["선형대수학"],"date":"2018년 11월 25일","tags":["코딩 더 매트릭스","python"],"title":"코딩 더 매트릭스 - 3장 벡터 (3)","description":"상삼각시스템, 후진대입법"}}},{"node":{"frontmatter":{"slug":"/coding-the-matrix-vector-2","category":["선형대수학"],"date":"2018년 11월 25일","tags":["코딩 더 매트릭스","python"],"title":"코딩 더 매트릭스 - 3장 벡터 (2)","description":"벡터의 도트곱"}}},{"node":{"frontmatter":{"slug":"/coding-the-matrix-vector-1","category":["선형대수학"],"date":"2018년 11월 18일","tags":["코딩 더 매트릭스","python"],"title":"코딩 더 매트릭스 - 3장 벡터 (1)","description":"볼록결합, 아핀결합, 선형방정식, 선형시스템"}}},{"node":{"frontmatter":{"slug":"/coding-the-matrix-field-2","category":["선형대수학"],"date":"2018년 11월 17일","tags":["코딩 더 매트릭스","python"],"title":"코딩 더 매트릭스 - 2장 필드 (2)","description":"갈루아 필드"}}}]}},"pageContext":{"skip":30,"current":4,"next":5,"prev":3,"total":5,"categories":[{"category":"선형대수학","count":26,"href":"/category/선형대수학"},{"category":"그래픽스","count":7,"href":"/category/그래픽스"},{"category":"병렬 프로그래밍","count":3,"href":"/category/병렬 프로그래밍"},{"category":"최적화 문제","count":3,"href":"/category/최적화 문제"},{"category":"알고리즘","count":2,"href":"/category/알고리즘"},{"category":"미적분","count":2,"href":"/category/미적분"}],"tags":[{"tag":"코딩 더 매트릭스","count":24,"href":"/tag/코딩 더 매트릭스"},{"tag":"python","count":24,"href":"/tag/python"},{"tag":"알고리즘","count":4,"href":"/tag/알고리즘"},{"tag":"OpenCL","count":3,"href":"/tag/OpenCL"},{"tag":"C","count":3,"href":"/tag/C"},{"tag":"회전","count":3,"href":"/tag/회전"},{"tag":"행렬","count":2,"href":"/tag/행렬"},{"tag":"그래픽스","count":2,"href":"/tag/그래픽스"},{"tag":"벡터","count":2,"href":"/tag/벡터"},{"tag":"라그랑주 승수법","count":2,"href":"/tag/라그랑주 승수법"},{"tag":"기저","count":1,"href":"/tag/기저"},{"tag":"정렬","count":1,"href":"/tag/정렬"},{"tag":"연결 리스트","count":1,"href":"/tag/연결 리스트"},{"tag":"문자열 탐색","count":1,"href":"/tag/문자열 탐색"},{"tag":"복소수","count":1,"href":"/tag/복소수"},{"tag":"사원수","count":1,"href":"/tag/사원수"},{"tag":"쿼터니언","count":1,"href":"/tag/쿼터니언"},{"tag":"선형대수학","count":1,"href":"/tag/선형대수학"},{"tag":"Gradient 벡터","count":1,"href":"/tag/Gradient 벡터"},{"tag":"편미분","count":1,"href":"/tag/편미분"},{"tag":"전미분","count":1,"href":"/tag/전미분"},{"tag":"확률분포","count":1,"href":"/tag/확률분포"}]}}}