{"componentChunkName":"component---src-containers-home-tsx","path":"/3","result":{"data":{"allMarkdownRemark":{"edges":[{"node":{"frontmatter":{"slug":"/euler-angle-rotation","category":["그래픽스"],"date":"2019년 03월 30일","tags":["회전"],"title":"오일러 각과 회전 (Euler angle and rotation)","description":"오일러 각을 이용한 회전"}}},{"node":{"frontmatter":{"slug":"/vector-cross-product","category":["선형대수학"],"date":"2019년 03월 30일","tags":["벡터"],"title":"벡터의 외적과 삼중곱","description":"벡터 외적의 정의와 삼중곱에 대한 성질"}}},{"node":{"frontmatter":{"slug":"/simplex-method","category":["최적화 문제"],"date":"2019년 03월 02일","tags":["선형대수학"],"title":"심플렉스 방법 (Simplex Method)","description":"선형 계획법 문제를 푸는 한가지 방법"}}},{"node":{"frontmatter":{"slug":"/duality-problem","category":["최적화 문제"],"date":"2019년 03월 02일","tags":["라그랑주 승수법"],"title":"듀얼 문제 (Dual Problem)","description":"최적화 이론에서 원초 문제와 쌍을 이루는 듀얼 문제 찾기"}}},{"node":{"frontmatter":{"slug":"/lagrange-multiplier-method","category":["최적화 문제"],"date":"2019년 02월 25일","tags":["라그랑주 승수법"],"title":"라그랑주 승수법 (Lagrange Multiplier Method)","description":"제약조건이 있는 최적화 문제 풀기"}}},{"node":{"frontmatter":{"slug":"/gradient-vector","category":["미적분"],"date":"2019년 02월 25일","tags":["Gradient 벡터"],"title":"방향 도함수와 Gradient 벡터","description":"방향 도함수, Gradient 벡터의 성질과 상관관계"}}},{"node":{"frontmatter":{"slug":"/partial-derivative-total-derivative","category":["미적분"],"date":"2019년 02월 25일","tags":["편미분","전미분"],"title":"편미분과 전미분","description":"다변수에 대한 미분"}}},{"node":{"frontmatter":{"slug":"/coding-the-matrix-eigenvector-2","category":["선형대수학"],"date":"2019년 02월 23일","tags":["코딩 더 매트릭스","python"],"title":"코딩 더 매트릭스 - 13장 고유벡터 (2)","description":"행렬식, 고유값"}}},{"node":{"frontmatter":{"slug":"/coding-the-matrix-eigenvector-1","category":["선형대수학"],"date":"2019년 02월 23일","tags":["코딩 더 매트릭스","python"],"title":"코딩 더 매트릭스 - 13장 고유벡터 (1)","description":"대각행렬, 고유값, 고유행렬, 유사행렬"}}},{"node":{"frontmatter":{"slug":"/coding-the-matrix-svd","category":["선형대수학"],"date":"2019년 02월 16일","tags":["코딩 더 매트릭스","python"],"title":"코딩 더 매트릭스 - 12장 특이값 분해","description":"가까운 차원의 벡터 공간"}}}]}},"pageContext":{"skip":20,"current":3,"next":4,"prev":2,"total":6,"categories":[{"category":"선형대수학","count":26,"href":"/category/선형대수학"},{"category":"그래픽스","count":14,"href":"/category/그래픽스"},{"category":"병렬 프로그래밍","count":3,"href":"/category/병렬 프로그래밍"},{"category":"최적화 문제","count":3,"href":"/category/최적화 문제"},{"category":"알고리즘","count":2,"href":"/category/알고리즘"},{"category":"미적분","count":2,"href":"/category/미적분"},{"category":"운영체제","count":1,"href":"/category/운영체제"}],"tags":[{"tag":"코딩 더 매트릭스","count":24,"href":"/tag/코딩 더 매트릭스"},{"tag":"python","count":24,"href":"/tag/python"},{"tag":"레이 트레이싱","count":7,"href":"/tag/레이 트레이싱"},{"tag":"알고리즘","count":4,"href":"/tag/알고리즘"},{"tag":"OpenCL","count":3,"href":"/tag/OpenCL"},{"tag":"C","count":3,"href":"/tag/C"},{"tag":"회전","count":3,"href":"/tag/회전"},{"tag":"행렬","count":2,"href":"/tag/행렬"},{"tag":"그래픽스","count":2,"href":"/tag/그래픽스"},{"tag":"벡터","count":2,"href":"/tag/벡터"},{"tag":"라그랑주 승수법","count":2,"href":"/tag/라그랑주 승수법"},{"tag":"메모리 단편화","count":1,"href":"/tag/메모리 단편화"},{"tag":"동적 메모리","count":1,"href":"/tag/동적 메모리"},{"tag":"기저","count":1,"href":"/tag/기저"},{"tag":"정렬","count":1,"href":"/tag/정렬"},{"tag":"연결 리스트","count":1,"href":"/tag/연결 리스트"},{"tag":"문자열 탐색","count":1,"href":"/tag/문자열 탐색"},{"tag":"복소수","count":1,"href":"/tag/복소수"},{"tag":"사원수","count":1,"href":"/tag/사원수"},{"tag":"쿼터니언","count":1,"href":"/tag/쿼터니언"},{"tag":"선형대수학","count":1,"href":"/tag/선형대수학"},{"tag":"Gradient 벡터","count":1,"href":"/tag/Gradient 벡터"},{"tag":"편미분","count":1,"href":"/tag/편미분"},{"tag":"전미분","count":1,"href":"/tag/전미분"},{"tag":"확률분포","count":1,"href":"/tag/확률분포"}]}}}